[gd_scene load_steps=5 format=2]

[ext_resource path="res://gameplay/coin/coin.gd" type="Script" id=1]
[ext_resource path="res://gameplay/piggy/coin.png" type="Texture" id=2]

[sub_resource type="PhysicsMaterial" id=1]
bounce = 0.2

[sub_resource type="CircleShape2D" id=2]
radius = 14.3807

[node name="Area2D" type="RigidBody2D" groups=[
"coin",
]]
physics_material_override = SubResource( 1 )
contacts_reported = 2
contact_monitor = true
script = ExtResource( 1 )

[node name="CollisionShape2D" type="CollisionShape2D" parent="."]
shape = SubResource( 2 )

[node name="Sprite" type="Sprite" parent="."]
position = Vector2( 0.437712, 0 )
scale = Vector2( 0.18, 0.18 )
texture = ExtResource( 2 )

[node name="Timer" type="Timer" parent="."]
wait_time = 3.0

[node name="AudioStreamPlayer2D" type="AudioStreamPlayer2D" parent="."]

