[gd_scene load_steps=6 format=2]

[ext_resource path="res://gameplay/trader/trader.gd" type="Script" id=1]
[ext_resource path="res://gameplay/trader/trader.png" type="Texture" id=2]
[ext_resource path="res://gameplay/trader/trader_02_anim01.png" type="Texture" id=3]
[ext_resource path="res://gameplay/trader/trader_02_anim02.png" type="Texture" id=4]

[sub_resource type="SpriteFrames" id=1]
animations = [ {
"frames": [ ExtResource( 3 ) ],
"loop": true,
"name": "default",
"speed": 5.0
}, {
"frames": [ ExtResource( 4 ), ExtResource( 4 ), ExtResource( 4 ), ExtResource( 3 ) ],
"loop": false,
"name": "fire",
"speed": 10.0
} ]

[node name="root" type="Node2D"]
script = ExtResource( 1 )

[node name="trader" type="Sprite" parent="."]
visible = false
position = Vector2( 0.250351, 0 )
scale = Vector2( 2.44, 2.44 )
texture = ExtResource( 2 )

[node name="Line2D" type="Line2D" parent="."]
position = Vector2( 0.064743, 3.38097 )
scale = Vector2( 0.0835536, 1 )
points = PoolVector2Array( 0, 26.75, 0, 0 )
width = 10.78
texture_mode = -1130584539

[node name="trader_02_anim01" type="AnimatedSprite" parent="."]
scale = Vector2( 0.2, 0.2 )
frames = SubResource( 1 )
playing = true

